{
  "tích đức" : {
    "count" : 0,
    "time" : "2016-08-24 03:10:33 +0000"
  },
  "nhọ nồi" : {
    "count" : 0,
    "time" : "2016-08-24 03:10:32 +0000"
  },
  "binh cơ" : {
    "count" : 0,
    "time" : "2016-08-24 03:10:32 +0000"
  },
  "liều lượng" : {
    "count" : 0,
    "time" : "2016-08-24 03:10:32 +0000"
  },
  "ngũ cốc" : {
    "count" : 0,
    "time" : "2016-08-24 03:10:32 +0000"
  },
  "khuất bóng" : {
    "count" : 0,
    "time" : "2016-08-24 03:10:32 +0000"
  },
  "chỉ giới" : {
    "count" : 0,
    "time" : "2016-08-24 03:10:32 +0000"
  },
  "tòng quyền" : {
    "count" : 0,
    "time" : "2016-08-24 03:10:33 +0000"
  },
  "be bét" : {
    "count" : 0,
    "time" : "2016-08-24 03:10:32 +0000"
  },
  "thẻ bài" : {
    "count" : 0,
    "time" : "2016-08-24 03:10:33 +0000"
  },
  "giác cự" : {
    "count" : 0,
    "time" : "2016-08-24 03:10:32 +0000"
  },
  "thiện căn" : {
    "count" : 0,
    "time" : "2016-08-24 03:10:33 +0000"
  },
  "tiết canh" : {
    "count" : 0,
    "time" : "2016-08-24 03:10:33 +0000"
  },
  "nhón nhén" : {
    "count" : 0,
    "time" : "2016-08-24 03:10:32 +0000"
  },
  "từ bi" : {
    "count" : 0,
    "time" : "2016-08-24 03:10:33 +0000"
  },
  "kiếu từ" : {
    "count" : 0,
    "time" : "2016-08-24 03:10:32 +0000"
  },
  "ngọc chiếu" : {
    "count" : 0,
    "time" : "2016-08-24 03:10:32 +0000"
  },
  "pi-nhông" : {
    "count" : 0,
    "time" : "2016-08-24 03:10:33 +0000"
  },
  "giấp giới" : {
    "count" : 0,
    "time" : "2016-08-24 03:10:32 +0000"
  },
  "khoe của" : {
    "count" : 0,
    "time" : "2016-08-24 03:10:32 +0000"
  },
  "sở cậy" : {
    "count" : 0,
    "time" : "2016-08-24 03:10:33 +0000"
  },
  "dược học" : {
    "count" : 0,
    "time" : "2016-08-24 03:10:32 +0000"
  },
  "mực in" : {
    "count" : 0,
    "time" : "2016-08-24 03:10:32 +0000"
  },
  "hây hây" : {
    "count" : 0,
    "time" : "2016-08-24 03:10:32 +0000"
  },
  "đền bù" : {
    "count" : 0,
    "time" : "2016-08-24 03:10:33 +0000"
  },
  "thắt buộc" : {
    "count" : 0,
    "time" : "2016-08-24 03:10:33 +0000"
  },
  "bèo Tây" : {
    "count" : 0,
    "time" : "2016-08-24 03:10:32 +0000"
  },
  "dẫy dụa" : {
    "count" : 0,
    "time" : "2016-08-24 03:10:32 +0000"
  },
  "chòng ghẹo" : {
    "count" : 0,
    "time" : "2016-08-24 03:10:32 +0000"
  },
  "nước sắc" : {
    "count" : 0,
    "time" : "2016-08-24 03:10:32 +0000"
  },
  "mỉa mai" : {
    "count" : 0,
    "time" : "2016-08-24 03:10:32 +0000"
  },
  "cân bằng" : {
    "count" : 0,
    "time" : "2016-08-24 03:10:32 +0000"
  },
  "giết thịt" : {
    "count" : 0,
    "time" : "2016-08-24 03:10:32 +0000"
  },
  "hương đăng" : {
    "count" : 0,
    "time" : "2016-08-24 03:10:32 +0000"
  },
  "luống cuống" : {
    "count" : 0,
    "time" : "2016-08-24 03:10:32 +0000"
  },
  "nước ròng" : {
    "count" : 0,
    "time" : "2016-08-24 03:10:32 +0000"
  },
  "hát bội" : {
    "count" : 0,
    "time" : "2016-08-24 03:10:32 +0000"
  },
  "mật chỉ" : {
    "count" : 0,
    "time" : "2016-08-24 03:10:32 +0000"
  },
  "nước rặc" : {
    "count" : 0,
    "time" : "2016-08-24 03:10:32 +0000"
  },
  "hương vòng" : {
    "count" : 0,
    "time" : "2016-08-24 03:10:32 +0000"
  },
  "bít-tông" : {
    "count" : 0,
    "time" : "2016-08-24 03:10:32 +0000"
  },
  "dược phẩm" : {
    "count" : 0,
    "time" : "2016-08-24 03:10:32 +0000"
  },
  "thưa trình" : {
    "count" : 0,
    "time" : "2016-08-24 03:10:33 +0000"
  },
  "ưu du" : {
    "count" : 0,
    "time" : "2016-08-24 03:10:33 +0000"
  },
  "pích-kê" : {
    "count" : 0,
    "time" : "2016-08-24 03:10:33 +0000"
  },
  "lóng cóng" : {
    "count" : 0,
    "time" : "2016-08-24 03:10:32 +0000"
  },
  "khánh hạ" : {
    "count" : 0,
    "time" : "2016-08-24 03:10:32 +0000"
  },
  "ngay lưng" : {
    "count" : 0,
    "time" : "2016-08-24 03:10:32 +0000"
  },
  "thư mục" : {
    "count" : 0,
    "time" : "2016-08-24 03:10:33 +0000"
  },
  "luôn tay" : {
    "count" : 0,
    "time" : "2016-08-24 03:10:32 +0000"
  },
  "nửa cung" : {
    "count" : 0,
    "time" : "2016-08-24 03:10:32 +0000"
  },
  "máy bay" : {
    "count" : 0,
    "time" : "2016-08-24 03:10:32 +0000"
  },
  "tủ gương" : {
    "count" : 0,
    "time" : "2016-08-24 03:10:33 +0000"
  },
  "nay kính" : {
    "count" : 0,
    "time" : "2016-08-24 03:10:32 +0000"
  },
  "nghĩ bụng" : {
    "count" : 0,
    "time" : "2016-08-24 03:10:32 +0000"
  },
  "quanh quánh" : {
    "count" : 0,
    "time" : "2016-08-24 03:10:33 +0000"
  },
  "bón thúc" : {
    "count" : 0,
    "time" : "2016-08-24 03:10:32 +0000"
  },
  "nằm chờ" : {
    "count" : 0,
    "time" : "2016-08-24 03:10:32 +0000"
  },
  "dị bào" : {
    "count" : 0,
    "time" : "2016-08-24 03:10:32 +0000"
  },
  "óc đậu" : {
    "count" : 0,
    "time" : "2016-08-24 03:10:32 +0000"
  },
  "gặm mòn" : {
    "count" : 0,
    "time" : "2016-08-24 03:10:32 +0000"
  },
  "dứa dại" : {
    "count" : 0,
    "time" : "2016-08-24 03:10:32 +0000"
  },
  "lần hồi" : {
    "count" : 0,
    "time" : "2016-08-24 03:10:32 +0000"
  },
  "bấy chầy" : {
    "count" : 0,
    "time" : "2016-08-24 03:10:32 +0000"
  },
  "xếp dọn" : {
    "count" : 0,
    "time" : "2016-08-24 03:10:33 +0000"
  },
  "ao cá" : {
    "count" : 0,
    "time" : "2016-08-24 03:10:32 +0000"
  },
  "góc bẹt" : {
    "count" : 0,
    "time" : "2016-08-24 03:10:32 +0000"
  },
  "miên hành" : {
    "count" : 0,
    "time" : "2016-08-24 03:10:32 +0000"
  },
  "đỉnh cao" : {
    "count" : 0,
    "time" : "2016-08-24 03:10:33 +0000"
  },
  "chứng cứ" : {
    "count" : 0,
    "time" : "2016-08-24 03:10:32 +0000"
  },
  "quỹ đen" : {
    "count" : 0,
    "time" : "2016-08-24 03:10:33 +0000"
  },
  "khoáng dã" : {
    "count" : 0,
    "time" : "2016-08-24 03:10:32 +0000"
  },
  "thườn thượt" : {
    "count" : 0,
    "time" : "2016-08-24 03:10:33 +0000"
  },
  "chim cắt" : {
    "count" : 0,
    "time" : "2016-08-24 03:10:32 +0000"
  },
  "lĩnh hội" : {
    "count" : 0,
    "time" : "2016-08-24 03:10:32 +0000"
  },
  "mả mẹ" : {
    "count" : 0,
    "time" : "2016-08-24 03:10:32 +0000"
  },
  "trô trố" : {
    "count" : 0,
    "time" : "2016-08-24 03:10:33 +0000"
  },
  "thử giọng" : {
    "count" : 0,
    "time" : "2016-08-24 03:10:33 +0000"
  },
  "cật lực" : {
    "count" : 0,
    "time" : "2016-08-24 03:10:32 +0000"
  },
  "dạy bảo" : {
    "count" : 0,
    "time" : "2016-08-24 03:10:32 +0000"
  },
  "dở chừng" : {
    "count" : 0,
    "time" : "2016-08-24 03:10:32 +0000"
  },
  "xương hàm" : {
    "count" : 0,
    "time" : "2016-08-24 03:10:33 +0000"
  },
  "lây lan" : {
    "count" : 0,
    "time" : "2016-08-24 03:10:32 +0000"
  },
  "khoan dung" : {
    "count" : 0,
    "time" : "2016-08-24 03:10:32 +0000"
  },
  "gần gũi" : {
    "count" : 0,
    "time" : "2016-08-24 03:10:32 +0000"
  },
  "chuyên chế" : {
    "count" : 0,
    "time" : "2016-08-24 03:10:32 +0000"
  },
  "kinh thương" : {
    "count" : 0,
    "time" : "2016-08-24 03:10:32 +0000"
  },
  "lác đác" : {
    "count" : 0,
    "time" : "2016-08-24 03:10:32 +0000"
  },
  "nhẻ nhót" : {
    "count" : 0,
    "time" : "2016-08-24 03:10:32 +0000"
  },
  "lẻng kẻng" : {
    "count" : 0,
    "time" : "2016-08-24 03:10:32 +0000"
  },
  "hồ dễ" : {
    "count" : 0,
    "time" : "2016-08-24 03:10:32 +0000"
  },
  "bù lỗ" : {
    "count" : 0,
    "time" : "2016-08-24 03:10:32 +0000"
  },
  "tuyên cáo" : {
    "count" : 0,
    "time" : "2016-08-24 03:10:33 +0000"
  },
  "lõa lồ" : {
    "count" : 0,
    "time" : "2016-08-24 03:10:32 +0000"
  },
  "mua chịu" : {
    "count" : 0,
    "time" : "2016-08-24 03:10:32 +0000"
  },
  "cùng kiệt" : {
    "count" : 0,
    "time" : "2016-08-24 03:10:32 +0000"
  },
  "òi ọp" : {
    "count" : 0,
    "time" : "2016-08-24 03:10:32 +0000"
  },
  "phao neo" : {
    "count" : 0,
    "time" : "2016-08-24 03:10:32 +0000"
  },
  "gớm ghê" : {
    "count" : 0,
    "time" : "2016-08-24 03:10:32 +0000"
  },
  "rồ dại" : {
    "count" : 0,
    "time" : "2016-08-24 03:10:33 +0000"
  },
  "óp xọp" : {
    "count" : 0,
    "time" : "2016-08-24 03:10:32 +0000"
  },
  "lỗ cống" : {
    "count" : 0,
    "time" : "2016-08-24 03:10:32 +0000"
  },
  "tinh hoa" : {
    "count" : 0,
    "time" : "2016-08-24 03:10:33 +0000"
  },
  "đập bể" : {
    "count" : 0,
    "time" : "2016-08-24 03:10:33 +0000"
  },
  "bóp bụng" : {
    "count" : 0,
    "time" : "2016-08-24 03:10:32 +0000"
  },
  "le le" : {
    "count" : 0,
    "time" : "2016-08-24 03:10:32 +0000"
  },
  "cử tri" : {
    "count" : 0,
    "time" : "2016-08-24 03:10:32 +0000"
  },
  "lồi lõm" : {
    "count" : 0,
    "time" : "2016-08-24 03:10:32 +0000"
  },
  "quỉ quyệt" : {
    "count" : 0,
    "time" : "2016-08-24 03:10:33 +0000"
  },
  "hiếu động" : {
    "count" : 0,
    "time" : "2016-08-24 03:10:32 +0000"
  },
  "thương cảm" : {
    "count" : 0,
    "time" : "2016-08-24 03:10:33 +0000"
  },
  "nhỡ hẹn" : {
    "count" : 0,
    "time" : "2016-08-24 03:10:32 +0000"
  },
  "thia lia" : {
    "count" : 0,
    "time" : "2016-08-24 03:10:33 +0000"
  },
  "chày kình" : {
    "count" : 0,
    "time" : "2016-08-24 03:10:32 +0000"
  },
  "tiềm ẩn" : {
    "count" : 0,
    "time" : "2016-08-24 03:10:33 +0000"
  },
  "mả cha" : {
    "count" : 0,
    "time" : "2016-08-24 03:10:32 +0000"
  },
  "lâng láo" : {
    "count" : 0,
    "time" : "2016-08-24 03:10:32 +0000"
  },
  "vãng phản" : {
    "count" : 0,
    "time" : "2016-08-24 03:10:33 +0000"
  },
  "phiền hà" : {
    "count" : 0,
    "time" : "2016-08-24 03:10:32 +0000"
  },
  "quà cáp" : {
    "count" : 0,
    "time" : "2016-08-24 03:10:33 +0000"
  },
  "thiềm thừ" : {
    "count" : 0,
    "time" : "2016-08-24 03:10:33 +0000"
  },
  "ơi ới" : {
    "count" : 0,
    "time" : "2016-08-24 03:10:32 +0000"
  },
  "sấm ngôn" : {
    "count" : 0,
    "time" : "2016-08-24 03:10:33 +0000"
  },
  "bom bi" : {
    "count" : 0,
    "time" : "2016-08-24 03:10:32 +0000"
  },
  "rườm tai" : {
    "count" : 0,
    "time" : "2016-08-24 03:10:33 +0000"
  },
  "xuôi tai" : {
    "count" : 0,
    "time" : "2016-08-24 03:10:33 +0000"
  },
  "toàn cục" : {
    "count" : 0,
    "time" : "2016-08-24 03:10:33 +0000"
  },
  "dáng chừng" : {
    "count" : 0,
    "time" : "2016-08-24 03:10:32 +0000"
  },
  "sành nghề" : {
    "count" : 0,
    "time" : "2016-08-24 03:10:33 +0000"
  },
  "tim tím" : {
    "count" : 0,
    "time" : "2016-08-24 03:10:33 +0000"
  },
  "xôm trò" : {
    "count" : 0,
    "time" : "2016-08-24 03:10:33 +0000"
  },
  "lom khom" : {
    "count" : 0,
    "time" : "2016-08-24 03:10:32 +0000"
  },
  "đậm đà" : {
    "count" : 0,
    "time" : "2016-08-24 03:10:33 +0000"
  },
  "tre pheo" : {
    "count" : 0,
    "time" : "2016-08-24 03:10:33 +0000"
  },
  "rùm beng" : {
    "count" : 0,
    "time" : "2016-08-24 03:10:33 +0000"
  },
  "giọt mưa" : {
    "count" : 0,
    "time" : "2016-08-24 03:10:32 +0000"
  },
  "ruột tằm" : {
    "count" : 0,
    "time" : "2016-08-24 03:10:33 +0000"
  },
  "rượu chát" : {
    "count" : 0,
    "time" : "2016-08-24 03:10:33 +0000"
  },
  "phó bảng" : {
    "count" : 0,
    "time" : "2016-08-24 03:10:32 +0000"
  },
  "giảo quyệt" : {
    "count" : 0,
    "time" : "2016-08-24 03:10:32 +0000"
  },
  "rãnh nước" : {
    "count" : 0,
    "time" : "2016-08-24 03:10:33 +0000"
  },
  "chuốc lấy" : {
    "count" : 0,
    "time" : "2016-08-24 03:10:32 +0000"
  },
  "lùng bắt" : {
    "count" : 0,
    "time" : "2016-08-24 03:10:32 +0000"
  },
  "tẻ ngắt" : {
    "count" : 0,
    "time" : "2016-08-24 03:10:33 +0000"
  },
  "niên giám" : {
    "count" : 0,
    "time" : "2016-08-24 03:10:32 +0000"
  },
  "cùng dân" : {
    "count" : 0,
    "time" : "2016-08-24 03:10:32 +0000"
  },
  "chu cảnh" : {
    "count" : 0,
    "time" : "2016-08-24 03:10:32 +0000"
  },
  "giảng đàn" : {
    "count" : 0,
    "time" : "2016-08-24 03:10:32 +0000"
  },
  "cứu nạn" : {
    "count" : 0,
    "time" : "2016-08-24 03:10:32 +0000"
  },
  "tròng lọng" : {
    "count" : 0,
    "time" : "2016-08-24 03:10:33 +0000"
  },
  "cằm cặp" : {
    "count" : 0,
    "time" : "2016-08-24 03:10:32 +0000"
  },
  "gạch chéo" : {
    "count" : 0,
    "time" : "2016-08-24 03:10:32 +0000"
  },
  "quê kệch" : {
    "count" : 0,
    "time" : "2016-08-24 03:10:33 +0000"
  },
  "ngoặc ôm" : {
    "count" : 0,
    "time" : "2016-08-24 03:10:32 +0000"
  },
  "huỳnh thạch" : {
    "count" : 0,
    "time" : "2016-08-24 03:10:32 +0000"
  },
  "lợn biển" : {
    "count" : 0,
    "time" : "2016-08-24 03:10:32 +0000"
  },
  "tích chứa" : {
    "count" : 0,
    "time" : "2016-08-24 03:10:33 +0000"
  },
  "toa ăn" : {
    "count" : 0,
    "time" : "2016-08-24 03:10:33 +0000"
  },
  "yên giấc" : {
    "count" : 0,
    "time" : "2016-08-24 03:10:33 +0000"
  },
  "đám chay" : {
    "count" : 0,
    "time" : "2016-08-24 03:10:33 +0000"
  },
  "choe choé" : {
    "count" : 0,
    "time" : "2016-08-24 03:10:32 +0000"
  },
  "người xưa" : {
    "count" : 0,
    "time" : "2016-08-24 03:10:32 +0000"
  },
  "vài bốn" : {
    "count" : 0,
    "time" : "2016-08-24 03:10:33 +0000"
  },
  "cò cử" : {
    "count" : 0,
    "time" : "2016-08-24 03:10:32 +0000"
  },
  "với lại" : {
    "count" : 0,
    "time" : "2016-08-24 03:10:33 +0000"
  },
  "lăn chiêng" : {
    "count" : 0,
    "time" : "2016-08-24 03:10:32 +0000"
  },
  "sàng lọc" : {
    "count" : 0,
    "time" : "2016-08-24 03:10:33 +0000"
  },
  "muôn kiếp" : {
    "count" : 0,
    "time" : "2016-08-24 03:10:32 +0000"
  },
  "toà án" : {
    "count" : 0,
    "time" : "2016-08-24 03:10:33 +0000"
  },
  "thùng thùng" : {
    "count" : 0,
    "time" : "2016-08-24 03:10:33 +0000"
  },
  "hà cớ" : {
    "count" : 0,
    "time" : "2016-08-24 03:10:32 +0000"
  },
  "gương lồi" : {
    "count" : 0,
    "time" : "2016-08-24 03:10:32 +0000"
  },
  "rỡ ràng" : {
    "count" : 0,
    "time" : "2016-08-24 03:10:33 +0000"
  },
  "dù cho" : {
    "count" : 0,
    "time" : "2016-08-24 03:10:32 +0000"
  },
  "sùm sòa" : {
    "count" : 0,
    "time" : "2016-08-24 03:10:33 +0000"
  },
  "nhắm chừng" : {
    "count" : 0,
    "time" : "2016-08-24 03:10:32 +0000"
  },
  "lớn gan" : {
    "count" : 0,
    "time" : "2016-08-24 03:10:32 +0000"
  },
  "chữa bệnh" : {
    "count" : 0,
    "time" : "2016-08-24 03:10:32 +0000"
  },
  "căng phồng" : {
    "count" : 0,
    "time" : "2016-08-24 03:10:32 +0000"
  },
  "xeo nạy" : {
    "count" : 0,
    "time" : "2016-08-24 03:10:33 +0000"
  },
  "đi biển" : {
    "count" : 0,
    "time" : "2016-08-24 03:10:33 +0000"
  },
  "cứu tế" : {
    "count" : 0,
    "time" : "2016-08-24 03:10:32 +0000"
  },
  "đờ người" : {
    "count" : 0,
    "time" : "2016-08-24 03:10:33 +0000"
  },
  "lồng bàn" : {
    "count" : 0,
    "time" : "2016-08-24 03:10:32 +0000"
  },
  "hoàng đằng" : {
    "count" : 0,
    "time" : "2016-08-24 03:10:32 +0000"
  },
  "cò ke" : {
    "count" : 0,
    "time" : "2016-08-24 03:10:32 +0000"
  },
  "lẫy lừng" : {
    "count" : 0,
    "time" : "2016-08-24 03:10:32 +0000"
  },
  "vặn hỏi" : {
    "count" : 0,
    "time" : "2016-08-24 03:10:33 +0000"
  },
  "nồng cháy" : {
    "count" : 0,
    "time" : "2016-08-24 03:10:32 +0000"
  },
  "chương cú" : {
    "count" : 0,
    "time" : "2016-08-24 03:10:32 +0000"
  },
  "hí trường" : {
    "count" : 0,
    "time" : "2016-08-24 03:10:32 +0000"
  },
  "triển khai" : {
    "count" : 0,
    "time" : "2016-08-24 03:10:33 +0000"
  },
  "phôi nang" : {
    "count" : 0,
    "time" : "2016-08-24 03:10:32 +0000"
  },
  "mạ vàng" : {
    "count" : 0,
    "time" : "2016-08-24 03:10:32 +0000"
  },
  "lùng nhùng" : {
    "count" : 0,
    "time" : "2016-08-24 03:10:32 +0000"
  },
  "hương lửa" : {
    "count" : 0,
    "time" : "2016-08-24 03:10:32 +0000"
  },
  "xộc xệch" : {
    "count" : 0,
    "time" : "2016-08-24 03:10:33 +0000"
  },
  "dì phước" : {
    "count" : 0,
    "time" : "2016-08-24 03:10:32 +0000"
  },
  "vạn bội" : {
    "count" : 0,
    "time" : "2016-08-24 03:10:33 +0000"
  },
  "chơ chỏng" : {
    "count" : 0,
    "time" : "2016-08-24 03:10:32 +0000"
  },
  "giun dẹp" : {
    "count" : 0,
    "time" : "2016-08-24 03:10:32 +0000"
  },
  "hố xí" : {
    "count" : 0,
    "time" : "2016-08-24 03:10:32 +0000"
  },
  "chem chép" : {
    "count" : 0,
    "time" : "2016-08-24 03:10:32 +0000"
  },
  "tè tè" : {
    "count" : 0,
    "time" : "2016-08-24 03:10:33 +0000"
  },
  "muông thú" : {
    "count" : 0,
    "time" : "2016-08-24 03:10:32 +0000"
  },
  "chuyến bay" : {
    "count" : 0,
    "time" : "2016-08-24 03:10:32 +0000"
  },
  "uỷ mị" : {
    "count" : 0,
    "time" : "2016-08-24 03:10:33 +0000"
  },
  "đến cùng" : {
    "count" : 0,
    "time" : "2016-08-24 03:10:33 +0000"
  },
  "cứu cánh" : {
    "count" : 0,
    "time" : "2016-08-24 03:10:32 +0000"
  },
  "tìm kiếm" : {
    "count" : 0,
    "time" : "2016-08-24 03:10:33 +0000"
  },
  "hiếu dưỡng" : {
    "count" : 0,
    "time" : "2016-08-24 03:10:32 +0000"
  },
  "chọn lựa" : {
    "count" : 0,
    "time" : "2016-08-24 03:10:32 +0000"
  },
  "bá chiếm" : {
    "count" : 0,
    "time" : "2016-08-24 03:10:32 +0000"
  },
  "gieo hạt" : {
    "count" : 0,
    "time" : "2016-08-24 03:10:32 +0000"
  },
  "ước ao" : {
    "count" : 0,
    "time" : "2016-08-24 03:10:33 +0000"
  },
  "mốc thếch" : {
    "count" : 0,
    "time" : "2016-08-24 03:10:32 +0000"
  },
  "dòm ngó" : {
    "count" : 0,
    "time" : "2016-08-24 03:10:32 +0000"
  },
  "cha chả" : {
    "count" : 0,
    "time" : "2016-08-24 03:10:32 +0000"
  },
  "hạng bình" : {
    "count" : 0,
    "time" : "2016-08-24 03:10:32 +0000"
  },
  "ngồi dậy" : {
    "count" : 0,
    "time" : "2016-08-24 03:10:32 +0000"
  },
  "thuỷ binh" : {
    "count" : 0,
    "time" : "2016-08-24 03:10:33 +0000"
  },
  "rát mặt" : {
    "count" : 0,
    "time" : "2016-08-24 03:10:33 +0000"
  },
  "giẻ lau" : {
    "count" : 0,
    "time" : "2016-08-24 03:10:32 +0000"
  },
  "nhem nhúa" : {
    "count" : 0,
    "time" : "2016-08-24 03:10:32 +0000"
  },
  "bày hàng" : {
    "count" : 0,
    "time" : "2016-08-24 03:10:32 +0000"
  },
  "ý hội" : {
    "count" : 0,
    "time" : "2016-08-24 03:10:33 +0000"
  },
  "giỗ chạp" : {
    "count" : 0,
    "time" : "2016-08-24 03:10:32 +0000"
  },
  "người điên" : {
    "count" : 0,
    "time" : "2016-08-24 03:10:32 +0000"
  },
  "ĩnh bụng" : {
    "count" : 0,
    "time" : "2016-08-24 03:10:32 +0000"
  },
  "oa oa" : {
    "count" : 0,
    "time" : "2016-08-24 03:10:32 +0000"
  },
  "ám chỉ" : {
    "count" : 0,
    "time" : "2016-08-24 03:10:32 +0000"
  },
  "xo ro" : {
    "count" : 0,
    "time" : "2016-08-24 03:10:33 +0000"
  },
  "tù nhân" : {
    "count" : 0,
    "time" : "2016-08-24 03:10:33 +0000"
  },
  "thư thái" : {
    "count" : 0,
    "time" : "2016-08-24 03:10:33 +0000"
  },
  "chễm chện" : {
    "count" : 0,
    "time" : "2016-08-24 03:10:32 +0000"
  },
  "cuốn trôi" : {
    "count" : 0,
    "time" : "2016-08-24 03:10:32 +0000"
  },
  "ham muốn" : {
    "count" : 0,
    "time" : "2016-08-24 03:10:32 +0000"
  },
  "quấy quá" : {
    "count" : 0,
    "time" : "2016-08-24 03:10:33 +0000"
  },
  "vừa miệng" : {
    "count" : 0,
    "time" : "2016-08-24 03:10:33 +0000"
  },
  "bóp bẹp" : {
    "count" : 0,
    "time" : "2016-08-24 03:10:32 +0000"
  },
  "tốt bổng" : {
    "count" : 0,
    "time" : "2016-08-24 03:10:33 +0000"
  },
  "giếng bơm" : {
    "count" : 0,
    "time" : "2016-08-24 03:10:32 +0000"
  },
  "điều áp" : {
    "count" : 0,
    "time" : "2016-08-24 03:10:33 +0000"
  },
  "nịnh mặt" : {
    "count" : 0,
    "time" : "2016-08-24 03:10:32 +0000"
  },
  "sàm ngôn" : {
    "count" : 0,
    "time" : "2016-08-24 03:10:33 +0000"
  },
  "cắn câu" : {
    "count" : 0,
    "time" : "2016-08-24 03:10:32 +0000"
  },
  "vàng bạc" : {
    "count" : 0,
    "time" : "2016-08-24 03:10:33 +0000"
  },
  "dị vật" : {
    "count" : 0,
    "time" : "2016-08-24 03:10:32 +0000"
  },
  "gang tấc" : {
    "count" : 0,
    "time" : "2016-08-24 03:10:32 +0000"
  },
  "lỡ lời" : {
    "count" : 0,
    "time" : "2016-08-24 03:10:32 +0000"
  },
  "thoát hiểm" : {
    "count" : 0,
    "time" : "2016-08-24 03:10:33 +0000"
  },
  "khàn khàn" : {
    "count" : 0,
    "time" : "2016-08-24 03:10:32 +0000"
  },
  "đôi bên" : {
    "count" : 0,
    "time" : "2016-08-24 03:10:33 +0000"
  },
  "khép nép" : {
    "count" : 0,
    "time" : "2016-08-24 03:10:32 +0000"
  },
  "dứt sữa" : {
    "count" : 0,
    "time" : "2016-08-24 03:10:32 +0000"
  },
  "bít-quy" : {
    "count" : 0,
    "time" : "2016-08-24 03:10:32 +0000"
  },
  "lấm láp" : {
    "count" : 0,
    "time" : "2016-08-24 03:10:32 +0000"
  },
  "dào dạt" : {
    "count" : 0,
    "time" : "2016-08-24 03:10:32 +0000"
  },
  "chuôi dao" : {
    "count" : 0,
    "time" : "2016-08-24 03:10:32 +0000"
  },
  "phức hệ" : {
    "count" : 0,
    "time" : "2016-08-24 03:10:33 +0000"
  },
  "cột buồm" : {
    "count" : 0,
    "time" : "2016-08-24 03:10:32 +0000"
  },
  "vĩnh biệt" : {
    "count" : 0,
    "time" : "2016-08-24 03:10:33 +0000"
  },
  "tuần du" : {
    "count" : 0,
    "time" : "2016-08-24 03:10:33 +0000"
  },
  "khoai lang" : {
    "count" : 0,
    "time" : "2016-08-24 03:10:32 +0000"
  },
  "nao núng" : {
    "count" : 0,
    "time" : "2016-08-24 03:10:32 +0000"
  },
  "vắt sổ" : {
    "count" : 0,
    "time" : "2016-08-24 03:10:33 +0000"
  },
  "đăm đăm" : {
    "count" : 0,
    "time" : "2016-08-24 03:10:33 +0000"
  },
  "qua lại" : {
    "count" : 0,
    "time" : "2016-08-24 03:10:33 +0000"
  },
  "kinh nghĩa" : {
    "count" : 0,
    "time" : "2016-08-24 03:10:32 +0000"
  },
  "rân rấn" : {
    "count" : 0,
    "time" : "2016-08-24 03:10:33 +0000"
  },
  "khăng khăng" : {
    "count" : 0,
    "time" : "2016-08-24 03:10:32 +0000"
  },
  "biển cả" : {
    "count" : 0,
    "time" : "2016-08-24 03:10:32 +0000"
  },
  "tỏ lộ" : {
    "count" : 0,
    "time" : "2016-08-24 03:10:33 +0000"
  },
  "người vượn" : {
    "count" : 0,
    "time" : "2016-08-24 03:10:32 +0000"
  },
  "luyến tiếc" : {
    "count" : 0,
    "time" : "2016-08-24 03:10:32 +0000"
  },
  "rét cóng" : {
    "count" : 0,
    "time" : "2016-08-24 03:10:33 +0000"
  },
  "luân lý" : {
    "count" : 0,
    "time" : "2016-08-24 03:10:32 +0000"
  },
  "triều cống" : {
    "count" : 0,
    "time" : "2016-08-24 03:10:33 +0000"
  },
  "đãng trí" : {
    "count" : 0,
    "time" : "2016-08-24 03:10:33 +0000"
  },
  "đường đột" : {
    "count" : 0,
    "time" : "2016-08-24 03:10:33 +0000"
  },
  "khừ khừ" : {
    "count" : 0,
    "time" : "2016-08-24 03:10:32 +0000"
  },
  "ngậu xị" : {
    "count" : 0,
    "time" : "2016-08-24 03:10:32 +0000"
  },
  "tháng bảy" : {
    "count" : 0,
    "time" : "2016-08-24 03:10:33 +0000"
  },
  "cười bò" : {
    "count" : 0,
    "time" : "2016-08-24 03:10:32 +0000"
  },
  "ươn hèn" : {
    "count" : 0,
    "time" : "2016-08-24 03:10:33 +0000"
  },
  "ngắt quãng" : {
    "count" : 0,
    "time" : "2016-08-24 03:10:32 +0000"
  },
  "sờn chí" : {
    "count" : 0,
    "time" : "2016-08-24 03:10:33 +0000"
  },
  "lục bát" : {
    "count" : 0,
    "time" : "2016-08-24 03:10:32 +0000"
  },
  "xương hông" : {
    "count" : 0,
    "time" : "2016-08-24 03:10:33 +0000"
  },
  "kí-lô" : {
    "count" : 0,
    "time" : "2016-08-24 03:10:32 +0000"
  },
  "nhượng địa" : {
    "count" : 0,
    "time" : "2016-08-24 03:10:32 +0000"
  },
  "ruột kết" : {
    "count" : 0,
    "time" : "2016-08-24 03:10:33 +0000"
  },
  "phấn hoa" : {
    "count" : 0,
    "time" : "2016-08-24 03:10:32 +0000"
  },
  "an phận" : {
    "count" : 0,
    "time" : "2016-08-24 03:10:32 +0000"
  },
  "phụ bản" : {
    "count" : 0,
    "time" : "2016-08-24 03:10:33 +0000"
  },
  "lóp lép" : {
    "count" : 0,
    "time" : "2016-08-24 03:10:32 +0000"
  },
  "ngừng bước" : {
    "count" : 0,
    "time" : "2016-08-24 03:10:32 +0000"
  },
  "tóm lược" : {
    "count" : 0,
    "time" : "2016-08-24 03:10:33 +0000"
  },
  "loảng choảng" : {
    "count" : 0,
    "time" : "2016-08-24 03:10:32 +0000"
  },
  "rừng nhám" : {
    "count" : 0,
    "time" : "2016-08-24 03:10:33 +0000"
  },
  "cẩn bạch" : {
    "count" : 0,
    "time" : "2016-08-24 03:10:32 +0000"
  },
  "bị thịt" : {
    "count" : 0,
    "time" : "2016-08-24 03:10:32 +0000"
  },
  "yếu lĩnh" : {
    "count" : 0,
    "time" : "2016-08-24 03:10:33 +0000"
  },
  "cạn chén" : {
    "count" : 0,
    "time" : "2016-08-24 03:10:32 +0000"
  },
  "ngói nóc" : {
    "count" : 0,
    "time" : "2016-08-24 03:10:32 +0000"
  },
  "lục diện" : {
    "count" : 0,
    "time" : "2016-08-24 03:10:32 +0000"
  },
  "tính khí" : {
    "count" : 0,
    "time" : "2016-08-24 03:10:33 +0000"
  },
  "lặng lẽ" : {
    "count" : 0,
    "time" : "2016-08-24 03:10:32 +0000"
  },
  "núm vú" : {
    "count" : 0,
    "time" : "2016-08-24 03:10:32 +0000"
  },
  "lủn củn" : {
    "count" : 0,
    "time" : "2016-08-24 03:10:32 +0000"
  },
  "tình cờ" : {
    "count" : 0,
    "time" : "2016-08-24 03:10:33 +0000"
  },
  "dạng dòng" : {
    "count" : 0,
    "time" : "2016-08-24 03:10:32 +0000"
  },
  "rục xương" : {
    "count" : 0,
    "time" : "2016-08-24 03:10:33 +0000"
  },
  "nựng nịu" : {
    "count" : 0,
    "time" : "2016-08-24 03:10:32 +0000"
  },
  "dài dòng" : {
    "count" : 0,
    "time" : "2016-08-24 03:10:32 +0000"
  },
  "nghe bệnh" : {
    "count" : 0,
    "time" : "2016-08-24 03:10:32 +0000"
  },
  "phàm lệ" : {
    "count" : 0,
    "time" : "2016-08-24 03:10:32 +0000"
  },
  "trên bờ" : {
    "count" : 0,
    "time" : "2016-08-24 03:10:33 +0000"
  },
  "hâm hấp" : {
    "count" : 0,
    "time" : "2016-08-24 03:10:32 +0000"
  },
  "cương vực" : {
    "count" : 0,
    "time" : "2016-08-24 03:10:32 +0000"
  },
  "cày cục" : {
    "count" : 0,
    "time" : "2016-08-24 03:10:32 +0000"
  },
  "thư nhàn" : {
    "count" : 0,
    "time" : "2016-08-24 03:10:33 +0000"
  },
  "chai dạn" : {
    "count" : 0,
    "time" : "2016-08-24 03:10:32 +0000"
  },
  "trổ tài" : {
    "count" : 0,
    "time" : "2016-08-24 03:10:33 +0000"
  },
  "trù chân" : {
    "count" : 0,
    "time" : "2016-08-24 03:10:33 +0000"
  },
  "tia chớp" : {
    "count" : 0,
    "time" : "2016-08-24 03:10:33 +0000"
  },
  "đậu lào" : {
    "count" : 0,
    "time" : "2016-08-24 03:10:33 +0000"
  },
  "cầy hương" : {
    "count" : 0,
    "time" : "2016-08-24 03:10:32 +0000"
  },
  "củ chuối" : {
    "count" : 0,
    "time" : "2016-08-24 03:10:32 +0000"
  },
  "bâu bíu" : {
    "count" : 0,
    "time" : "2016-08-24 03:10:32 +0000"
  },
  "nhỡn tiền" : {
    "count" : 0,
    "time" : "2016-08-24 03:10:32 +0000"
  },
  "va ni" : {
    "count" : 0,
    "time" : "2016-08-24 03:10:33 +0000"
  },
  "phòng bị" : {
    "count" : 0,
    "time" : "2016-08-24 03:10:32 +0000"
  },
  "mỉm cười" : {
    "count" : 0,
    "time" : "2016-08-24 03:10:32 +0000"
  },
  "xoáy nghịch" : {
    "count" : 0,
    "time" : "2016-08-24 03:10:33 +0000"
  },
  "chôn chân" : {
    "count" : 0,
    "time" : "2016-08-24 03:10:32 +0000"
  },
  "mếu xệch" : {
    "count" : 0,
    "time" : "2016-08-24 03:10:32 +0000"
  },
  "nhắc nhở" : {
    "count" : 0,
    "time" : "2016-08-24 03:10:32 +0000"
  },
  "nhãng tai" : {
    "count" : 0,
    "time" : "2016-08-24 03:10:32 +0000"
  },
  "họp chợ" : {
    "count" : 0,
    "time" : "2016-08-24 03:10:32 +0000"
  },
  "lãng phí" : {
    "count" : 0,
    "time" : "2016-08-24 03:10:32 +0000"
  },
  "một cách" : {
    "count" : 0,
    "time" : "2016-08-24 03:10:32 +0000"
  },
  "bở vía" : {
    "count" : 0,
    "time" : "2016-08-24 03:10:32 +0000"
  },
  "rượu nếp" : {
    "count" : 0,
    "time" : "2016-08-24 03:10:33 +0000"
  },
  "phút đâu" : {
    "count" : 0,
    "time" : "2016-08-24 03:10:33 +0000"
  },
  "liếp nhiếp" : {
    "count" : 0,
    "time" : "2016-08-24 03:10:32 +0000"
  },
  "cấc lấc" : {
    "count" : 0,
    "time" : "2016-08-24 03:10:32 +0000"
  },
  "bạt hồn" : {
    "count" : 0,
    "time" : "2016-08-24 03:10:32 +0000"
  },
  "gánh hát" : {
    "count" : 0,
    "time" : "2016-08-24 03:10:32 +0000"
  },
  "xỉ than" : {
    "count" : 0,
    "time" : "2016-08-24 03:10:33 +0000"
  },
  "đứng lại" : {
    "count" : 0,
    "time" : "2016-08-24 03:10:33 +0000"
  },
  "nhan sắc" : {
    "count" : 0,
    "time" : "2016-08-24 03:10:32 +0000"
  },
  "tá tràng" : {
    "count" : 0,
    "time" : "2016-08-24 03:10:33 +0000"
  },
  "hương mục" : {
    "count" : 0,
    "time" : "2016-08-24 03:10:32 +0000"
  },
  "khuông phù" : {
    "count" : 0,
    "time" : "2016-08-24 03:10:32 +0000"
  },
  "nhay nháy" : {
    "count" : 0,
    "time" : "2016-08-24 03:10:32 +0000"
  },
  "định ảnh" : {
    "count" : 0,
    "time" : "2016-08-24 03:10:33 +0000"
  },
  "tịnh giới" : {
    "count" : 0,
    "time" : "2016-08-24 03:10:33 +0000"
  },
  "tương tế" : {
    "count" : 0,
    "time" : "2016-08-24 03:10:33 +0000"
  },
  "lông tơ" : {
    "count" : 0,
    "time" : "2016-08-24 03:10:32 +0000"
  },
  "quạt cánh" : {
    "count" : 0,
    "time" : "2016-08-24 03:10:33 +0000"
  },
  "nôm na" : {
    "count" : 0,
    "time" : "2016-08-24 03:10:32 +0000"
  },
  "tô kim" : {
    "count" : 0,
    "time" : "2016-08-24 03:10:33 +0000"
  },
  "tím bầm" : {
    "count" : 0,
    "time" : "2016-08-24 03:10:33 +0000"
  },
  "ngoài ra" : {
    "count" : 0,
    "time" : "2016-08-24 03:10:32 +0000"
  },
  "tuyết tan" : {
    "count" : 0,
    "time" : "2016-08-24 03:10:33 +0000"
  },
  "khí quan" : {
    "count" : 0,
    "time" : "2016-08-24 03:10:32 +0000"
  },
  "tắm hơi" : {
    "count" : 0,
    "time" : "2016-08-24 03:10:33 +0000"
  },
  "cheo cưới" : {
    "count" : 0,
    "time" : "2016-08-24 03:10:32 +0000"
  },
  "cuồng vọng" : {
    "count" : 0,
    "time" : "2016-08-24 03:10:32 +0000"
  },
  "yêu chuộng" : {
    "count" : 0,
    "time" : "2016-08-24 03:10:33 +0000"
  },
  "phô phang" : {
    "count" : 0,
    "time" : "2016-08-24 03:10:32 +0000"
  },
  "ải quan" : {
    "count" : 0,
    "time" : "2016-08-24 03:10:32 +0000"
  },
  "quở mắng" : {
    "count" : 0,
    "time" : "2016-08-24 03:10:33 +0000"
  },
  "bùn cát" : {
    "count" : 0,
    "time" : "2016-08-24 03:10:32 +0000"
  },
  "tốt bộ" : {
    "count" : 0,
    "time" : "2016-08-24 03:10:33 +0000"
  },
  "chó vàng" : {
    "count" : 0,
    "time" : "2016-08-24 03:10:32 +0000"
  },
  "căng thẳng" : {
    "count" : 0,
    "time" : "2016-08-24 03:10:32 +0000"
  },
  "ve áo" : {
    "count" : 0,
    "time" : "2016-08-24 03:10:33 +0000"
  },
  "đỡ dậy" : {
    "count" : 0,
    "time" : "2016-08-24 03:10:33 +0000"
  },
  "trưởng họ" : {
    "count" : 0,
    "time" : "2016-08-24 03:10:33 +0000"
  },
  "uỷ hội" : {
    "count" : 0,
    "time" : "2016-08-24 03:10:33 +0000"
  },
  "nghẽn mạch" : {
    "count" : 0,
    "time" : "2016-08-24 03:10:32 +0000"
  },
  "luận điểm" : {
    "count" : 0,
    "time" : "2016-08-24 03:10:32 +0000"
  },
  "buy-vét" : {
    "count" : 0,
    "time" : "2016-08-24 03:10:32 +0000"
  },
  "nghề in" : {
    "count" : 0,
    "time" : "2016-08-24 03:10:32 +0000"
  },
  "hiền sĩ" : {
    "count" : 0,
    "time" : "2016-08-24 03:10:32 +0000"
  },
  "rút chạy" : {
    "count" : 0,
    "time" : "2016-08-24 03:10:33 +0000"
  },
  "huyện uỷ" : {
    "count" : 0,
    "time" : "2016-08-24 03:10:32 +0000"
  },
  "yếu kém" : {
    "count" : 0,
    "time" : "2016-08-24 03:10:33 +0000"
  },
  "hóa trang" : {
    "count" : 0,
    "time" : "2016-08-24 03:10:32 +0000"
  },
  "êm ái" : {
    "count" : 0,
    "time" : "2016-08-24 03:10:32 +0000"
  },
  "đắc chí" : {
    "count" : 0,
    "time" : "2016-08-24 03:10:33 +0000"
  },
  "chen lấn" : {
    "count" : 0,
    "time" : "2016-08-24 03:10:32 +0000"
  },
  "xo vai" : {
    "count" : 0,
    "time" : "2016-08-24 03:10:33 +0000"
  },
  "kiên gan" : {
    "count" : 0,
    "time" : "2016-08-24 03:10:32 +0000"
  },
  "sì sụt" : {
    "count" : 0,
    "time" : "2016-08-24 03:10:33 +0000"
  },
  "hoạn lộ" : {
    "count" : 0,
    "time" : "2016-08-24 03:10:32 +0000"
  },
  "dạng sóng" : {
    "count" : 0,
    "time" : "2016-08-24 03:10:32 +0000"
  },
  "ngón chân" : {
    "count" : 0,
    "time" : "2016-08-24 03:10:32 +0000"
  },
  "sân bóng" : {
    "count" : 0,
    "time" : "2016-08-24 03:10:33 +0000"
  },
  "trái cân" : {
    "count" : 0,
    "time" : "2016-08-24 03:10:33 +0000"
  },
  "càng hay" : {
    "count" : 0,
    "time" : "2016-08-24 03:10:32 +0000"
  },
  "xà beng" : {
    "count" : 0,
    "time" : "2016-08-24 03:10:33 +0000"
  },
  "giai âm" : {
    "count" : 0,
    "time" : "2016-08-24 03:10:32 +0000"
  },
  "bị động" : {
    "count" : 0,
    "time" : "2016-08-24 03:10:32 +0000"
  },
  "thượng lệnh" : {
    "count" : 0,
    "time" : "2016-08-24 03:10:33 +0000"
  },
  "si mê" : {
    "count" : 0,
    "time" : "2016-08-24 03:10:33 +0000"
  },
  "sắc cạnh" : {
    "count" : 0,
    "time" : "2016-08-24 03:10:33 +0000"
  },
  "nuôi nấng" : {
    "count" : 0,
    "time" : "2016-08-24 03:10:32 +0000"
  },
  "bùa yêu" : {
    "count" : 0,
    "time" : "2016-08-24 03:10:32 +0000"
  },
  "cháu dâu" : {
    "count" : 0,
    "time" : "2016-08-24 03:10:32 +0000"
  },
  "lọi xương" : {
    "count" : 0,
    "time" : "2016-08-24 03:10:32 +0000"
  },
  "thượng cổ" : {
    "count" : 0,
    "time" : "2016-08-24 03:10:33 +0000"
  },
  "gửi thân" : {
    "count" : 0,
    "time" : "2016-08-24 03:10:32 +0000"
  },
  "sức mạnh" : {
    "count" : 0,
    "time" : "2016-08-24 03:10:33 +0000"
  },
  "hương bộ" : {
    "count" : 0,
    "time" : "2016-08-24 03:10:32 +0000"
  },
  "biển lặng" : {
    "count" : 0,
    "time" : "2016-08-24 03:10:32 +0000"
  },
  "chín khúc" : {
    "count" : 0,
    "time" : "2016-08-24 03:10:32 +0000"
  },
  "nghinh chiến" : {
    "count" : 0,
    "time" : "2016-08-24 03:10:32 +0000"
  },
  "rãnh ngầm" : {
    "count" : 0,
    "time" : "2016-08-24 03:10:33 +0000"
  },
  "yểng quạ" : {
    "count" : 0,
    "time" : "2016-08-24 03:10:33 +0000"
  },
  "bần bạch" : {
    "count" : 0,
    "time" : "2016-08-24 03:10:32 +0000"
  },
  "vái lạy" : {
    "count" : 0,
    "time" : "2016-08-24 03:10:33 +0000"
  },
  "bị vì" : {
    "count" : 0,
    "time" : "2016-08-24 03:10:32 +0000"
  },
  "sỏi niệu" : {
    "count" : 0,
    "time" : "2016-08-24 03:10:33 +0000"
  },
  "kinh bổn" : {
    "count" : 0,
    "time" : "2016-08-24 03:10:32 +0000"
  },
  "vay lãi" : {
    "count" : 0,
    "time" : "2016-08-24 03:10:33 +0000"
  },
  "giương cao" : {
    "count" : 0,
    "time" : "2016-08-24 03:10:32 +0000"
  },
  "khiếm nhã" : {
    "count" : 0,
    "time" : "2016-08-24 03:10:32 +0000"
  },
  "lủn chủn" : {
    "count" : 0,
    "time" : "2016-08-24 03:10:32 +0000"
  },
  "thầy bà" : {
    "count" : 0,
    "time" : "2016-08-24 03:10:33 +0000"
  },
  "sụn mí" : {
    "count" : 0,
    "time" : "2016-08-24 03:10:33 +0000"
  },
  "ớt bột" : {
    "count" : 0,
    "time" : "2016-08-24 03:10:32 +0000"
  },
  "diệt vong" : {
    "count" : 0,
    "time" : "2016-08-24 03:10:32 +0000"
  },
  "lờ lững" : {
    "count" : 0,
    "time" : "2016-08-24 03:10:32 +0000"
  },
  "ghen ăn" : {
    "count" : 0,
    "time" : "2016-08-24 03:10:32 +0000"
  },
  "mới lạ" : {
    "count" : 0,
    "time" : "2016-08-24 03:10:32 +0000"
  },
  "bông bênh" : {
    "count" : 0,
    "time" : "2016-08-24 03:10:32 +0000"
  },
  "giải binh" : {
    "count" : 0,
    "time" : "2016-08-24 03:10:32 +0000"
  },
  "giải ách" : {
    "count" : 0,
    "time" : "2016-08-24 03:10:32 +0000"
  },
  "nghĩa dũng" : {
    "count" : 0,
    "time" : "2016-08-24 03:10:32 +0000"
  },
  "mãi lộ" : {
    "count" : 0,
    "time" : "2016-08-24 03:10:32 +0000"
  },
  "thôi nôi" : {
    "count" : 0,
    "time" : "2016-08-24 03:10:33 +0000"
  },
  "súc sản" : {
    "count" : 0,
    "time" : "2016-08-24 03:10:33 +0000"
  },
  "quay chậm" : {
    "count" : 0,
    "time" : "2016-08-24 03:10:33 +0000"
  },
  "nghinh tân" : {
    "count" : 0,
    "time" : "2016-08-24 03:10:32 +0000"
  },
  "tắt kinh" : {
    "count" : 0,
    "time" : "2016-08-24 03:10:33 +0000"
  },
  "đích xác" : {
    "count" : 0,
    "time" : "2016-08-24 03:10:33 +0000"
  },
  "uyên bác" : {
    "count" : 0,
    "time" : "2016-08-24 03:10:33 +0000"
  },
  "niềng niễng" : {
    "count" : 0,
    "time" : "2016-08-24 03:10:32 +0000"
  },
  "nước dãi" : {
    "count" : 0,
    "time" : "2016-08-24 03:10:32 +0000"
  },
  "sơn cẩu" : {
    "count" : 0,
    "time" : "2016-08-24 03:10:33 +0000"
  },
  "cưỡng dâm" : {
    "count" : 0,
    "time" : "2016-08-24 03:10:32 +0000"
  },
  "khoảng khoát" : {
    "count" : 0,
    "time" : "2016-08-24 03:10:32 +0000"
  },
  "dường nào" : {
    "count" : 0,
    "time" : "2016-08-24 03:10:32 +0000"
  },
  "đèn bàn" : {
    "count" : 0,
    "time" : "2016-08-24 03:10:33 +0000"
  },
  "tom ngỏm" : {
    "count" : 0,
    "time" : "2016-08-24 03:10:33 +0000"
  },
  "thịt nướng" : {
    "count" : 0,
    "time" : "2016-08-24 03:10:33 +0000"
  },
  "nhễ nhại" : {
    "count" : 0,
    "time" : "2016-08-24 03:10:32 +0000"
  },
  "lò cò" : {
    "count" : 0,
    "time" : "2016-08-24 03:10:32 +0000"
  },
  "kho báu" : {
    "count" : 0,
    "time" : "2016-08-24 03:10:32 +0000"
  },
  "đáng giá" : {
    "count" : 0,
    "time" : "2016-08-24 03:10:33 +0000"
  },
  "việt kiều" : {
    "count" : 0,
    "time" : "2016-08-24 03:10:33 +0000"
  },
  "lượng cầu" : {
    "count" : 0,
    "time" : "2016-08-24 03:10:32 +0000"
  },
  "tha chết" : {
    "count" : 0,
    "time" : "2016-08-24 03:10:33 +0000"
  },
  "lựu đạn" : {
    "count" : 0,
    "time" : "2016-08-24 03:10:32 +0000"
  },
  "bó cẳng" : {
    "count" : 0,
    "time" : "2016-08-24 03:10:32 +0000"
  },
  "giãy chết" : {
    "count" : 0,
    "time" : "2016-08-24 03:10:32 +0000"
  },
  "cập cách" : {
    "count" : 0,
    "time" : "2016-08-24 03:10:32 +0000"
  },
  "nuối tiếc" : {
    "count" : 0,
    "time" : "2016-08-24 03:10:32 +0000"
  },
  "xao nhãng" : {
    "count" : 0,
    "time" : "2016-08-24 03:10:33 +0000"
  },
  "bênh vực" : {
    "count" : 0,
    "time" : "2016-08-24 03:10:32 +0000"
  },
  "nhiếp chính" : {
    "count" : 0,
    "time" : "2016-08-24 03:10:32 +0000"
  },
  "xăm xăm" : {
    "count" : 0,
    "time" : "2016-08-24 03:10:33 +0000"
  },
  "nghỉ ốm" : {
    "count" : 0,
    "time" : "2016-08-24 03:10:32 +0000"
  },
  "sởn sơ" : {
    "count" : 0,
    "time" : "2016-08-24 03:10:33 +0000"
  },
  "cụp tai" : {
    "count" : 0,
    "time" : "2016-08-24 03:10:32 +0000"
  },
  "gấp gáp" : {
    "count" : 0,
    "time" : "2016-08-24 03:10:32 +0000"
  },
  "nhồn nhột" : {
    "count" : 0,
    "time" : "2016-08-24 03:10:32 +0000"
  },
  "tạm dừng" : {
    "count" : 0,
    "time" : "2016-08-24 03:10:33 +0000"
  },
  "tích hợp" : {
    "count" : 0,
    "time" : "2016-08-24 03:10:33 +0000"
  },
  "tựu nghĩa" : {
    "count" : 0,
    "time" : "2016-08-24 03:10:33 +0000"
  },
  "tuân theo" : {
    "count" : 0,
    "time" : "2016-08-24 03:10:33 +0000"
  },
  "cạp nia" : {
    "count" : 0,
    "time" : "2016-08-24 03:10:32 +0000"
  },
  "trở chứng" : {
    "count" : 0,
    "time" : "2016-08-24 03:10:33 +0000"
  },
  "ngoan ngoãn" : {
    "count" : 0,
    "time" : "2016-08-24 03:10:32 +0000"
  },
  "cưỡi cổ" : {
    "count" : 0,
    "time" : "2016-08-24 03:10:32 +0000"
  },
  "thước kẹp" : {
    "count" : 0,
    "time" : "2016-08-24 03:10:33 +0000"
  },
  "nâu non" : {
    "count" : 0,
    "time" : "2016-08-24 03:10:32 +0000"
  },
  "am tự" : {
    "count" : 0,
    "time" : "2016-08-24 03:10:32 +0000"
  },
  "tuyệt giao" : {
    "count" : 0,
    "time" : "2016-08-24 03:10:33 +0000"
  },
  "cười cợt" : {
    "count" : 0,
    "time" : "2016-08-24 03:10:32 +0000"
  },
  "đằng hắng" : {
    "count" : 0,
    "time" : "2016-08-24 03:10:33 +0000"
  },
  "giẫy giụa" : {
    "count" : 0,
    "time" : "2016-08-24 03:10:32 +0000"
  },
  "binh biến" : {
    "count" : 0,
    "time" : "2016-08-24 03:10:32 +0000"
  },
  "vỏ chai" : {
    "count" : 0,
    "time" : "2016-08-24 03:10:33 +0000"
  },
  "nghèo khổ" : {
    "count" : 0,
    "time" : "2016-08-24 03:10:32 +0000"
  },
  "tọa lạc" : {
    "count" : 0,
    "time" : "2016-08-24 03:10:33 +0000"
  },
  "láp nháp" : {
    "count" : 0,
    "time" : "2016-08-24 03:10:32 +0000"
  },
  "nhật dạ" : {
    "count" : 0,
    "time" : "2016-08-24 03:10:32 +0000"
  },
  "nhạy miệng" : {
    "count" : 0,
    "time" : "2016-08-24 03:10:32 +0000"
  },
  "lều bều" : {
    "count" : 0,
    "time" : "2016-08-24 03:10:32 +0000"
  },
  "vua bếp" : {
    "count" : 0,
    "time" : "2016-08-24 03:10:33 +0000"
  },
  "rung chuông" : {
    "count" : 0,
    "time" : "2016-08-24 03:10:33 +0000"
  },
  "tỉ lệ" : {
    "count" : 0,
    "time" : "2016-08-24 03:10:33 +0000"
  },
  "thỉnh an" : {
    "count" : 0,
    "time" : "2016-08-24 03:10:33 +0000"
  },
  "bạo chính" : {
    "count" : 0,
    "time" : "2016-08-24 03:10:32 +0000"
  },
  "dịu giọng" : {
    "count" : 0,
    "time" : "2016-08-24 03:10:32 +0000"
  },
  "nhún vai" : {
    "count" : 0,
    "time" : "2016-08-24 03:10:32 +0000"
  },
  "thói quen" : {
    "count" : 0,
    "time" : "2016-08-24 03:10:33 +0000"
  },
  "dịu dàng" : {
    "count" : 0,
    "time" : "2016-08-24 03:10:32 +0000"
  },
  "nắc nỏm" : {
    "count" : 0,
    "time" : "2016-08-24 03:10:32 +0000"
  },
  "lề lối" : {
    "count" : 0,
    "time" : "2016-08-24 03:10:32 +0000"
  },
  "gặp gái" : {
    "count" : 0,
    "time" : "2016-08-24 03:10:32 +0000"
  },
  "khuynh hướng" : {
    "count" : 0,
    "time" : "2016-08-24 03:10:32 +0000"
  },
  "cối cần" : {
    "count" : 0,
    "time" : "2016-08-24 03:10:32 +0000"
  },
  "xây cất" : {
    "count" : 0,
    "time" : "2016-08-24 03:10:33 +0000"
  },
  "bá âm" : {
    "count" : 0,
    "time" : "2016-08-24 03:10:32 +0000"
  },
  "mù lòa" : {
    "count" : 0,
    "time" : "2016-08-24 03:10:32 +0000"
  },
  "sáo mòn" : {
    "count" : 0,
    "time" : "2016-08-24 03:10:33 +0000"
  },
  "phấp phới" : {
    "count" : 0,
    "time" : "2016-08-24 03:10:32 +0000"
  },
  "nam ai" : {
    "count" : 0,
    "time" : "2016-08-24 03:10:32 +0000"
  },
  "thưa bẩm" : {
    "count" : 0,
    "time" : "2016-08-24 03:10:33 +0000"
  },
  "phốt-pho" : {
    "count" : 0,
    "time" : "2016-08-24 03:10:32 +0000"
  },
  "tám hoánh" : {
    "count" : 0,
    "time" : "2016-08-24 03:10:33 +0000"
  },
  "nai lưng" : {
    "count" : 0,
    "time" : "2016-08-24 03:10:32 +0000"
  },
  "sáo ngữ" : {
    "count" : 0,
    "time" : "2016-08-24 03:10:33 +0000"
  },
  "hiện hữu" : {
    "count" : 0,
    "time" : "2016-08-24 03:10:32 +0000"
  },
  "bím tóc" : {
    "count" : 0,
    "time" : "2016-08-24 03:10:32 +0000"
  },
  "tinh cất" : {
    "count" : 0,
    "time" : "2016-08-24 03:10:33 +0000"
  },
  "chiết quang" : {
    "count" : 0,
    "time" : "2016-08-24 03:10:32 +0000"
  },
  "đàng xa" : {
    "count" : 0,
    "time" : "2016-08-24 03:10:33 +0000"
  },
  "liên tưởng" : {
    "count" : 0,
    "time" : "2016-08-24 03:10:32 +0000"
  },
  "tí tẹo" : {
    "count" : 0,
    "time" : "2016-08-24 03:10:33 +0000"
  },
  "lụn đời" : {
    "count" : 0,
    "time" : "2016-08-24 03:10:32 +0000"
  },
  "trôi giạt" : {
    "count" : 0,
    "time" : "2016-08-24 03:10:33 +0000"
  },
  "xú-ve" : {
    "count" : 0,
    "time" : "2016-08-24 03:10:33 +0000"
  },
  "biệt lệ" : {
    "count" : 0,
    "time" : "2016-08-24 03:10:32 +0000"
  },
  "hụt hơi" : {
    "count" : 0,
    "time" : "2016-08-24 03:10:32 +0000"
  },
  "phổi bò" : {
    "count" : 0,
    "time" : "2016-08-24 03:10:32 +0000"
  },
  "dưới nước" : {
    "count" : 0,
    "time" : "2016-08-24 03:10:32 +0000"
  },
  "chiêu hiền" : {
    "count" : 0,
    "time" : "2016-08-24 03:10:32 +0000"
  },
  "bật hồng" : {
    "count" : 0,
    "time" : "2016-08-24 03:10:32 +0000"
  },
  "giữa trưa" : {
    "count" : 0,
    "time" : "2016-08-24 03:10:32 +0000"
  },
  "quyến luyến" : {
    "count" : 0,
    "time" : "2016-08-24 03:10:33 +0000"
  },
  "oăng oẳng" : {
    "count" : 0,
    "time" : "2016-08-24 03:10:32 +0000"
  },
  "cuốn vó" : {
    "count" : 0,
    "time" : "2016-08-24 03:10:32 +0000"
  },
  "bồi bổ" : {
    "count" : 0,
    "time" : "2016-08-24 03:10:32 +0000"
  },
  "chuệch choạc" : {
    "count" : 0,
    "time" : "2016-08-24 03:10:32 +0000"
  },
  "chầm chậm" : {
    "count" : 0,
    "time" : "2016-08-24 03:10:32 +0000"
  },
  "lốp xe" : {
    "count" : 0,
    "time" : "2016-08-24 03:10:32 +0000"
  },
  "chịu khổ" : {
    "count" : 0,
    "time" : "2016-08-24 03:10:32 +0000"
  },
  "nghỉ ngơi" : {
    "count" : 0,
    "time" : "2016-08-24 03:10:32 +0000"
  },
  "ô cửa" : {
    "count" : 0,
    "time" : "2016-08-24 03:10:32 +0000"
  },
  "hề chi" : {
    "count" : 0,
    "time" : "2016-08-24 03:10:32 +0000"
  },
  "sở cầu" : {
    "count" : 0,
    "time" : "2016-08-24 03:10:33 +0000"
  },
  "keng keng" : {
    "count" : 0,
    "time" : "2016-08-24 03:10:32 +0000"
  },
  "mực nước" : {
    "count" : 0,
    "time" : "2016-08-24 03:10:32 +0000"
  },
  "trưởng tôn" : {
    "count" : 0,
    "time" : "2016-08-24 03:10:33 +0000"
  },
  "hổ lốn" : {
    "count" : 0,
    "time" : "2016-08-24 03:10:32 +0000"
  },
  "xách mé" : {
    "count" : 0,
    "time" : "2016-08-24 03:10:33 +0000"
  },
  "dành dụm" : {
    "count" : 0,
    "time" : "2016-08-24 03:10:32 +0000"
  },
  "hồi phục" : {
    "count" : 0,
    "time" : "2016-08-24 03:10:32 +0000"
  },
  "giát lò" : {
    "count" : 0,
    "time" : "2016-08-24 03:10:32 +0000"
  },
  "phơi khô" : {
    "count" : 0,
    "time" : "2016-08-24 03:10:32 +0000"
  },
  "vắt kiệt" : {
    "count" : 0,
    "time" : "2016-08-24 03:10:33 +0000"
  },
  "lỗ thông" : {
    "count" : 0,
    "time" : "2016-08-24 03:10:32 +0000"
  },
  "phầm phập" : {
    "count" : 0,
    "time" : "2016-08-24 03:10:32 +0000"
  },
  "dính dáng" : {
    "count" : 0,
    "time" : "2016-08-24 03:10:32 +0000"
  },
  "vũ công" : {
    "count" : 0,
    "time" : "2016-08-24 03:10:33 +0000"
  },
  "chẵn-lẻ" : {
    "count" : 0,
    "time" : "2016-08-24 03:10:32 +0000"
  },
  "dành dành" : {
    "count" : 0,
    "time" : "2016-08-24 03:10:32 +0000"
  },
  "thưởng thức" : {
    "count" : 0,
    "time" : "2016-08-24 03:10:33 +0000"
  },
  "chủ mưu" : {
    "count" : 0,
    "time" : "2016-08-24 03:10:32 +0000"
  },
  "trá hàng" : {
    "count" : 0,
    "time" : "2016-08-24 03:10:33 +0000"
  },
  "đắng cay" : {
    "count" : 0,
    "time" : "2016-08-24 03:10:33 +0000"
  },
  "quyên tiền" : {
    "count" : 0,
    "time" : "2016-08-24 03:10:33 +0000"
  },
  "toán trưởng" : {
    "count" : 0,
    "time" : "2016-08-24 03:10:33 +0000"
  },
  "tường chắn" : {
    "count" : 0,
    "time" : "2016-08-24 03:10:33 +0000"
  },
  "bẻo lẻo" : {
    "count" : 0,
    "time" : "2016-08-24 03:10:32 +0000"
  },
  "sẵn lòng" : {
    "count" : 0,
    "time" : "2016-08-24 03:10:33 +0000"
  },
  "dấu cách" : {
    "count" : 0,
    "time" : "2016-08-24 03:10:32 +0000"
  },
  "giơ-tông" : {
    "count" : 0,
    "time" : "2016-08-24 03:10:32 +0000"
  },
  "nghển cổ" : {
    "count" : 0,
    "time" : "2016-08-24 03:10:32 +0000"
  },
  "xuân tình" : {
    "count" : 0,
    "time" : "2016-08-24 03:10:33 +0000"
  },
  "vạm vỡ" : {
    "count" : 0,
    "time" : "2016-08-24 03:10:33 +0000"
  },
  "nhổ bão" : {
    "count" : 0,
    "time" : "2016-08-24 03:10:32 +0000"
  },
  "sóng âm" : {
    "count" : 0,
    "time" : "2016-08-24 03:10:33 +0000"
  },
  "xưng bá" : {
    "count" : 0,
    "time" : "2016-08-24 03:10:33 +0000"
  },
  "sững sờ" : {
    "count" : 0,
    "time" : "2016-08-24 03:10:33 +0000"
  },
  "rắm rít" : {
    "count" : 0,
    "time" : "2016-08-24 03:10:33 +0000"
  },
  "đuôi mắt" : {
    "count" : 0,
    "time" : "2016-08-24 03:10:33 +0000"
  },
  "ông anh" : {
    "count" : 0,
    "time" : "2016-08-24 03:10:32 +0000"
  },
  "chín tới" : {
    "count" : 0,
    "time" : "2016-08-24 03:10:32 +0000"
  },
  "chò hỏ" : {
    "count" : 0,
    "time" : "2016-08-24 03:10:32 +0000"
  },
  "trưởng ty" : {
    "count" : 0,
    "time" : "2016-08-24 03:10:33 +0000"
  },
  "chỏn hỏn" : {
    "count" : 0,
    "time" : "2016-08-24 03:10:32 +0000"
  },
  "hẩm hiu" : {
    "count" : 0,
    "time" : "2016-08-24 03:10:32 +0000"
  },
  "sưu thuế" : {
    "count" : 0,
    "time" : "2016-08-24 03:10:33 +0000"
  },
  "mệnh bạc" : {
    "count" : 0,
    "time" : "2016-08-24 03:10:32 +0000"
  },
  "phất phới" : {
    "count" : 0,
    "time" : "2016-08-24 03:10:32 +0000"
  },
  "cấu chí" : {
    "count" : 0,
    "time" : "2016-08-24 03:10:32 +0000"
  },
  "cà chua" : {
    "count" : 0,
    "time" : "2016-08-24 03:10:32 +0000"
  },
  "ràng buộc" : {
    "count" : 0,
    "time" : "2016-08-24 03:10:33 +0000"
  },
  "trội hơn" : {
    "count" : 0,
    "time" : "2016-08-24 03:10:33 +0000"
  },
  "dược tá" : {
    "count" : 0,
    "time" : "2016-08-24 03:10:32 +0000"
  },
  "bĩ thái" : {
    "count" : 0,
    "time" : "2016-08-24 03:10:32 +0000"
  },
  "thỉnh cầu" : {
    "count" : 0,
    "time" : "2016-08-24 03:10:33 +0000"
  },
  "quý hiếm" : {
    "count" : 0,
    "time" : "2016-08-24 03:10:33 +0000"
  },
  "ổn áp" : {
    "count" : 0,
    "time" : "2016-08-24 03:10:32 +0000"
  },
  "xàng xê" : {
    "count" : 0,
    "time" : "2016-08-24 03:10:33 +0000"
  },
  "biệt số" : {
    "count" : 0,
    "time" : "2016-08-24 03:10:32 +0000"
  },
  "dấu ấn" : {
    "count" : 0,
    "time" : "2016-08-24 03:10:32 +0000"
  },
  "loạn dâm" : {
    "count" : 0,
    "time" : "2016-08-24 03:10:32 +0000"
  },
  "số báo" : {
    "count" : 0,
    "time" : "2016-08-24 03:10:33 +0000"
  },
  "phều phào" : {
    "count" : 0,
    "time" : "2016-08-24 03:10:32 +0000"
  },
  "chúc thư" : {
    "count" : 0,
    "time" : "2016-08-24 03:10:32 +0000"
  }
}